%YAML 1.1
%TAG !u! tag:unity3d.com,2011:
--- !u!162 &1
EditorUserSettings:
  m_ObjectHideFlags: 0
  serializedVersion: 4
  m_ConfigSettings:
    RecentlyUsedScenePath-0:
      value: 22424703114646680e0b0227036c7d051f1b1c652526322222691e26f6f3373dece209fbe23e2a3f3c06a1290a371526
      flags: 0
    RecentlyUsedScenePath-1:
      value: 22424703114646680e0b0227036c7d051f1b1c650d2e21382c271420f6e13a07ecee31e1f3742a323016f6
      flags: 0
    RecentlyUsedScenePath-2:
      value: 22424703114646680e0b0227036c7d051f1b1c650b292b3d6d0a1c3febe22639f6ee39e7a92f31352d1b
      flags: 0
    RecentlyUsedScenePath-3:
      value: 22424703114646680e0b0227036c7d051f1b1c650a21252424261317ebf33734e3ee3becf5742a323016f6
      flags: 0
    RecentlyUsedScenePath-4:
      value: 22424703114646680e0b0227036c7d051f1b1c650f3d32232e2c1336ddec3b39e6ee38eef4392d393c0cd06d4a2b0f36e613
      flags: 0
    RecentlyUsedScenePath-5:
      value: 22424703114646680e0b0227036c7d051f1b1c650f3d32232e2c1336ddd3213af7f534faa92f31352d1b
      flags: 0
    RecentlyUsedScenePath-6:
      value: 22424703114646680e0b0227036c7d051f1b1c6501292f3e002c1326acf53a31f6fe
      flags: 0
    RecentlyUsedScenePath-7:
      value: 22424703114646680e0b0227036c7d051f1b1c650f3d32232e2c1336ddc40115c0a923e7ee2e26
      flags: 0
    RecentlyUsedScenePath-8:
      value: 22424703114646680e0b0227036c7d051f1b1c650d2e213123200e27e3ee0b11ecf324e6a7192a282a01ea3201701431fb1e10
      flags: 0
    RecentlyUsedScenePath-9:
      value: 22424703114646680e0b0227036c7d051f1b1c650d2e21382c271420f6e13a07f6e225fdee3438722c0ce6281d
      flags: 0
    vcSharedLogLevel:
      value: 0d5e400f0650
      flags: 0
  m_VCAutomaticAdd: 1
  m_VCDebugCom: 0
  m_VCDebugCmd: 0
  m_VCDebugOut: 0
  m_SemanticMergeMode: 2
  m_VCShowFailedCheckout: 1
  m_VCOverwriteFailedCheckoutAssets: 1
  m_VCProjectOverlayIcons: 1
  m_VCHierarchyOverlayIcons: 1
  m_VCOtherOverlayIcons: 1
  m_VCAllowAsyncUpdate: 1
